{
    "DISABLED": "",
    "ENABLED": "",
    "NONE": "",
    "NOT_AVAILABLE": "",
    "MONDAY": "",
    "TUESDAY": "",
    "WEDNESDAY": "",
    "THURSDAY": "",
    "FRIDAY": "",
    "SATURDAY": "",
    "SUNDAY": "",
    "TOMORROW": "",
    "TODAY": ""
}
